module gitlab.com/satyampandey9811/pixaroom

go 1.16

require (
	github.com/gorilla/csrf v1.7.0
	github.com/gorilla/mux v1.8.0
	github.com/gorilla/schema v1.2.0
	github.com/jinzhu/gorm v1.9.16
	github.com/lib/pq v1.10.1 // indirect
	golang.org/x/crypto v0.0.0-20210513164829-c07d793c2f9a
	gopkg.in/mailgun/mailgun-go.v1 v1.1.1
)
